<?xml version="1.0" encoding="UTF-8" standalone="no"?>
<svg
   width="180"
   height="180"
   viewBox="0 0 47.625 47.625"
   version="1.1"
   id="svg5"
   inkscape:version="1.1-alpha (11bdb7263d, 2021-02-23)"
   sodipodi:docname="next_page.svg"
   xmlns:inkscape="http://www.inkscape.org/namespaces/inkscape"
   xmlns:sodipodi="http://sodipodi.sourceforge.net/DTD/sodipodi-0.dtd"
   xmlns="http://www.w3.org/2000/svg"
   xmlns:svg="http://www.w3.org/2000/svg">
  <sodipodi:namedview
     id="namedview7"
     pagecolor="#ffffff"
     bordercolor="#999999"
     borderopacity="1"
     objecttolerance="10.0"
     gridtolerance="10.0"
     guidetolerance="10.0"
     inkscape:pageshadow="0"
     inkscape:pageopacity="0"
     inkscape:pagecheckerboard="0"
     inkscape:document-units="px"
     showgrid="false"
     inkscape:zoom="2.1207512"
     inkscape:cx="126.60608"
     inkscape:cy="100.67188"
     inkscape:window-width="1534"
     inkscape:window-height="843"
     inkscape:window-x="66"
     inkscape:window-y="20"
     inkscape:window-maximized="1"
     inkscape:current-layer="layer1" />
  <defs
     id="defs2">
    <marker
       style="overflow:visible;"
       id="Arrow2Mend"
       refX="0.0"
       refY="0.0"
       orient="auto"
       inkscape:stockid="Arrow2Mend"
       inkscape:isstock="true">
      <path
         transform="scale(0.6) rotate(180) translate(0,0)"
         d="M 8.7185878,4.0337352 L -2.2072895,0.016013256 L 8.7185884,-4.0017078 C 6.9730900,-1.6296469 6.9831476,1.6157441 8.7185878,4.0337352 z "
         style="fill-rule:evenodd;fill:context-stroke;stroke-width:0.62500000;stroke-linejoin:round;"
         id="path6306" />
    </marker>
    <marker
       style="overflow:visible;"
       id="Arrow1Send"
       refX="0.0"
       refY="0.0"
       orient="auto"
       inkscape:stockid="Arrow1Send"
       inkscape:isstock="true">
      <path
         transform="scale(0.2) rotate(180) translate(6,0)"
         style="fill-rule:evenodd;fill:context-stroke;stroke:context-stroke;stroke-width:1.0pt;"
         d="M 0.0,0.0 L 5.0,-5.0 L -12.5,0.0 L 5.0,5.0 L 0.0,0.0 z "
         id="path6294" />
    </marker>
  </defs>
  <g
     inkscape:label="Layer 1"
     inkscape:groupmode="layer"
     id="layer1">
    <rect
       style="fill:#000000;fill-opacity:0.484523;stroke-width:1.72881;stroke-linecap:round;stroke-linejoin:bevel;stroke-opacity:0.783761;paint-order:stroke markers fill;stop-color:#000000"
       id="rect846"
       width="42.333332"
       height="42.333332"
       x="2.645834"
       y="2.645834" />
    <g
       id="path6112"
       transform="translate(-1.4733455,-0.087433)">
      <path
         style="color:#000000;fill:#ffffff;stroke-linecap:round;stroke-linejoin:bevel;-inkscape-stroke:none;paint-order:stroke markers fill"
         d="m 15.136719,22.992187 a 0.92603999,0.92603999 0 0 0 -0.925781,0.925782 0.92603999,0.92603999 0 0 0 0.925781,0.925781 h 18.242187 a 0.92603999,0.92603999 0 0 0 0.925781,-0.925781 0.92603999,0.92603999 0 0 0 -0.925781,-0.925782 z"
         id="path6647" />
      <g
         id="g6637">
        <path
           style="color:#000000;fill:#ffffff;fill-rule:evenodd;stroke-width:0.69453;stroke-linejoin:round;-inkscape-stroke:none"
           d="m 24.219394,19.435248 12.141359,4.464685 -12.14136,4.464685 c 1.939682,-2.635948 1.928505,-6.242382 1e-6,-8.92937 z"
           id="path6639" />
      </g>
    </g>
  </g>
</svg>
